contract,ground truth,your output,your runtime,your point
final-9.sol,Tainted,Tainted,1.598,0
final-10.sol,Tainted,Tainted,1.657,0
final-11.sol,Safe,Safe,1.97,1
final-12.sol,Safe,Tainted,0.91,0
final-12-1.sol,Tainted,Tainted,1.509,0
final-13.sol,Safe,Safe,0.944,1
final-14.sol,Tainted,Tainted,1.294,0
final-15.sol,Safe,Safe,1.312,1
final-16.sol,Tainted,Tainted,1.726,0
final-17.sol,Tainted,Tainted,1.692,0
final-18.sol,Safe,Safe,1.73,1
final-19.sol,Safe,Safe,1.5,1
final-20.sol,Safe,Safe,1.506,1
final-21.sol,Tainted,Tainted,1.577,0
final-22.sol,Safe,Safe,1.484,1
final-23.sol,Tainted,Tainted,1.463,0
final-24.sol,Safe,Safe,1.655,1
final-25.sol,Tainted,Tainted,2.14,0
final-26.sol,Tainted,Tainted,1.835,0
final-27.sol,Safe,Safe,2.063,1
final-28.sol,Safe,Safe,2.411,1
final-29.sol,Tainted,Tainted,1.921,0
final-30.sol,Tainted,Tainted,2.247,0
final-31.sol,Safe,Safe,5.188,1
final-32.sol,Tainted,Tainted,5.095,0
final-33.sol,Tainted,Tainted,11.575,0
final-34.sol,Tainted,Tainted,2.046,0
final-35.sol,Tainted,Tainted,2.184,0
final-36.sol,Tainted,Tainted,3.06,0
final-37.sol,Safe,Safe,1.9,1
final-38.sol,Safe,Safe,1.677,1
final-39.sol,Safe,Safe,1.712,1
final-40.sol,Safe,Safe,3.424,1
final-41.sol,Tainted,Tainted,3.055,0
final-42.sol,Tainted,Tainted,1.717,0
final-43.sol,Tainted,Tainted,2.0,0
final-44.sol,Tainted,Tainted,1.891,0
final-45.sol,Tainted,Tainted,1.468,0
final-46.sol,Safe,Safe,1.739,1
final-47.sol,Tainted,Safe,1.876,-2
final-48.sol,Safe,Tainted,2.19,0
final-49.sol,Safe,Tainted,2.053,0
final-50.sol,Tainted,Tainted,2.206,0
final-51.sol,Tainted,Tainted,1.871,0
final-52.sol,Safe,Safe,2.134,1
final-53.sol,Safe,Tainted,1.871,0
final-54.sol,Tainted,Tainted,1.886,0
final-55.sol,Safe,Tainted,1.841,0
final-56.sol,Safe,Safe,6.629,1
final-57.sol,Tainted,Tainted,6.749,0
final-58.sol,Safe,Safe,4.758,1
final-59.sol,Safe,Safe,6.537,1
final-60.sol,Safe,timeout (Tainted),60,0
final-61.sol,Tainted,timeout (Tainted),60,0
final-62.sol,Tainted,Tainted,1.07,0
final-63.sol,Tainted,Safe,1.204,-2
final-64.sol,Tainted,Tainted,1.154,0
final-65.sol,Safe,Safe,1.181,1
final-66.sol,Tainted,Safe,1.768,-2
final-67.sol,Safe,Safe,1.93,1
final-68.sol,Safe,Safe,1.64,1
final-69.sol,Tainted,Safe,2.086,-2
final-70.sol,Safe,Tainted,3.046,0
final-71.sol,Safe,Tainted,3.302,0
final-72.sol,Tainted,Tainted,2.934,0
final-73.sol,Safe,Safe,2.249,1
final-74.sol,Tainted,Tainted,2.755,0
final-75.sol,Safe,Safe,1.95,1
final-76.sol,Safe,Safe,2.044,1
final-77.sol,Safe,Safe,1.589,1
final-78.sol,Tainted,Tainted,1.654,0
final-79.sol,Safe,Safe,1.198,1
final-80.sol,Tainted,Tainted,1.271,0
final-81.sol,Safe,Safe,1.194,1
final-82.sol,Tainted,Tainted,1.163,0

total points: 21

your grade: 5.0
