contract,ground truth,your output,your runtime,your point
9.sol,Tainted,Tainted,1.033,0
10.sol,Tainted,Safe,1.075,-2
11.sol,Safe,Safe,1.131,1
12.sol,Safe,Tainted,1.011,0
12-1.sol,Tainted,Tainted,1.031,0
13.sol,Safe,Safe,1.085,1
14.sol,Tainted,Tainted,0.904,0
15.sol,Safe,Safe,1.079,1
16.sol,Tainted,Safe,1.128,-2
17.sol,Tainted,Safe,1.164,-2
18.sol,Safe,Safe,1.145,1
19.sol,Safe,Safe,0.858,1
20.sol,Safe,Safe,1.089,1
21.sol,Tainted,Safe,1.175,-2
22.sol,Safe,Tainted,0.944,0
23.sol,Tainted,Tainted,1.055,0
24.sol,Safe,Tainted,1.075,0
25.sol,Tainted,Tainted,1.349,0
26.sol,Tainted,Tainted,1.219,0
27.sol,Safe,Safe,0.964,1
28.sol,Safe,Safe,1.194,1
29.sol,Safe,Safe,1.298,1
30.sol,Tainted,Safe,1.308,-2
31.sol,Safe,Safe,1.275,1
32.sol,Tainted,Safe,1.18,-2
33.sol,Tainted,Safe,1.23,-2
34.sol,Tainted,Safe,1.26,-2
35.sol,Safe,Safe,1.269,1
36.sol,Tainted,Safe,1.066,-2
37.sol,Safe,Safe,0.916,1
38.sol,Safe,Safe,0.936,1
39.sol,Safe,Safe,0.914,1
40.sol,Safe,Safe,0.974,1
41.sol,Tainted,Safe,0.927,-2
42.sol,Tainted,Tainted,0.789,0
43.sol,Tainted,Tainted,0.774,0

total points: -5
